{
	"commentStamp" : "MichalSousedik 12/17/2017 00:36",
	"super" : "TRContent",
	"category" : "Render",
	"classinstvars" : [ ],
	"pools" : [ ],
	"classvars" : [ ],
	"instvars" : [
		"text"
	],
	"name" : "TRText",
	"type" : "normal"
}