{
	"commentStamp" : "MichalSousedik 12/17/2017 00:55",
	"super" : "Object",
	"category" : "Render",
	"classinstvars" : [ ],
	"pools" : [ ],
	"classvars" : [ ],
	"instvars" : [ ],
	"name" : "TRTreeRenderer",
	"type" : "normal"
}